{
    "user_id": 2719,
    "first_name": "Владимир",
    "last_name": "Сергиенко",
    "avatar_url": "/media/users/avatar/photo_jXn6iGZ.jpg",
    "is_contact": false,
    "owner": false,
    "stream_name": 15956,
    "gcore_hls_url": "https://talkme.gcdn.co/videos/28002_WrciZsrPrrHE2pb1/master.m3u8",
    "gcore_dash_url": null,
    "specialist_info": {
        "id": 1132,
        "gender": "female",
        "age": 35,
        "geo": 2503769,
        "bio": "Hdihffhghgjjgjjffufjfjfj\nDhhffjgjgjgjgjgjjgjgjggjjggjcjjv\nHfhffhgjgjjgcjcjgjfjjfjfcjjvvjgjgj\nUfhfjfjfjfjcjcjggjjfjfjcjvjgjgjggjjgjggjgjfhfhhfjfhffjjfjfjfjffjjffjjcfjjcvjvjjvjvvjvjjvjvcjjccjvjcjcjcjjvjcjvhxhffhfhfhfjfufufufyfufuyfdhhddhdhfhhfhffhdhhddhxhxhhdhccbcbbxhfxhdhdggdhfhfhfhffhhfhhffhhffhfjhfhffhfhhffhjfjfjfjgjgjgjggjjg",
        "instagram": "",
        "vk": "",
        "facebook": "",
        "telegram": "",
        "avatar_url": "https://talkme.life/media/thumbs/users/avatar/AEhBe0H-4i8.jpg.305x305_q85.jpg",
        "first_name": "Евгения",
        "last_name": "Бутикова",
        "city": {
            "city": "Блида",
            "region": "",
            "country": "Алжир",
            "geoname_id": 2503769
        },
        "gender_name": "Женщина",
        "lesson_planed_sp": 0,
        "username": "1132",
        "phone": "+79787416542",
        "number_class": "A181",
        "lesson_passed": 1,
        "rating": 0.0,
        "subscriptions_count": 7,
        "subscribers_count": 0,
        "vip": false
    },
    "time": {
        "duration": "01:00:00",
        "lesson_date": 1654857780.0
    }
}
