[{
    "id": 15841,
    "date": 165470400000,
    "sub_category": {
      "name": "Живая музыка",
      "slug": "zivaya_musica",
      "id": 578,
      "parent": 184
    },
    "tile_image": "https://talkme.life/media/thumbs/main/tiles/IMG_20220607_211626.jpg.650x470_q85.jpg",
    "tile_image_440": "https://talkme.life/media/thumbs/main/tiles/IMG_20220607_211626.jpg.400x150_q85.jpg",
    "owner": {
      "first_name": "Rina",
      "last_name": "Shakti",
      "id": 2181,
      "username": "2181",
      "avatar_url": "https://talkme.life/media/thumbs/users/avatar/upload_2021_09_07_15_34_03_638_AqUtnp1.jpg.305x305_q85.jpg",
      "avatar_url_100": "https://talkme.life/media/thumbs/users/avatar/upload_2021_09_07_15_34_03_638_AqUtnp1.jpg.100x100_q85.jpg",
      "number_class": "A309",
      "avatar_url_original": "https://talkme.life/media/users/avatar/upload_2021_09_07_15_34_03_638_AqUtnp1.jpg"
    },
    "category_name": "Музыка",
    "category_ico": "https://talkme.life/media/main/icon/music.png",
    "places_left": 1000,
    "is_owner": false,
    "is_subscribe": false,
    "name": "Пою красивые песни! 💖🎤🎼🎶🎵",
    "description": "Спою самые лучшие песни прошлых лет! 💞\nСтарые добрые хиты русские и английские. 🎤🎼🎶🎵💃✨🔥🌹🎆🎉🎊",
    "slug": "poyu_krasivyie_pesni_",
    "vip": false,
    "lesson_time": "01:00:00",
    "lesson_time_calculated": "00:12:59.099975",
    "cost": 0,
    "status": "опубликовано",
    "number_of_participants": 1000,
    "is_finish": false,
    "is_started": true,
    "stream_id": "",
    "unautherization_number": 2,
    "unautherization_subscribers": 0,
    "list_of_participants": [],
    "gcore_stream_id": "324041",
    "gcore_push_url": "rtmp://vp-push-dt1.gvideo.co/in/324041?c7d3853b16cc9b03200730b3510e05e2",
    "gcore_hls_url": "https://talkme.gcdn.co/videos/28002_5e1ksxgYwDD30nd/master.m3u8",
    "gcore_dash_url": null,
    "VIP_banner": false,
    "similar_lesson": []
    },
    {
        "id": 15865,
        "date": 165470400000,
        "sub_category": {
          "name": "Красота",
          "slug": "krasota",
          "id": 259,
          "parent": 181
        },
        "tile_image": "https://talkme.life/media/thumbs/main/tiles/photo_4uFsKSl.jpg.650x470_q85.jpg",
        "tile_image_440": "https://talkme.life/media/thumbs/main/tiles/photo_4uFsKSl.jpg.400x150_q85.jpg",
        "owner": {
          "first_name": "Вера",
          "last_name": "Башилова",
          "id": 1690,
          "username": "1690",
          "avatar_url": "https://talkme.life/media/thumbs/users/avatar/photo_cjxAO1M.jpg.305x305_q85.jpg",
          "avatar_url_100": "https://talkme.life/media/thumbs/users/avatar/photo_cjxAO1M.jpg.100x100_q85.jpg",
          "number_class": "A227",
          "avatar_url_original": "https://talkme.life/media/users/avatar/photo_cjxAO1M.jpg"
        },
        "category_name": "Курсы",
        "category_ico": "https://talkme.life/media/main/icon/courses.png",
        "places_left": 10000,
        "is_owner": false,
        "is_subscribe": false,
        "name": "Продолжаем рисовать на типсах",
        "description": "",
        "slug": "prodolzhaem_risovat_na_tipsah",
        "vip": false,
        "lesson_time": "00:30:00",
        "lesson_time_calculated": "00:00:00",
        "cost": 0,
        "status": "опубликовано",
        "number_of_participants": 10000,
        "is_finish": false,
        "is_started": true,
        "stream_id": "",
        "unautherization_number": 3,
        "unautherization_subscribers": 0,
        "list_of_participants": [],
        "gcore_stream_id": "324044",
        "gcore_push_url": "rtmp://vp-push-dt1.gvideo.co/in/324044?df14e608eed8569a74b18b655a437fa6",
        "gcore_hls_url": "https://talkme.gcdn.co/videos/28002_ZptX4EybEcHQKZR/master.m3u8",
        "gcore_dash_url": null,
        "VIP_banner": false,
        "similar_lesson": []
    },
    {
        "id": 15881,
        "date": 165470400000,
        "sub_category": {
          "name": "Юмор",
          "slug": "humor",
          "id": 815,
          "parent": 7
        },
        "tile_image": "https://talkme.life/media/thumbs/main/tiles/photo_QlBW1Kz.jpg.650x470_q85.jpg",
        "tile_image_440": "https://talkme.life/media/thumbs/main/tiles/photo_QlBW1Kz.jpg.400x150_q85.jpg",
        "owner": {
          "first_name": "Владислав",
          "last_name": "Афонин",
          "id": 2576,
          "username": "2576",
          "avatar_url": "https://talkme.life/media/thumbs/users/avatar/AEhBe0H-4i8.jpg.305x305_q85.jpg",
          "avatar_url_100": "https://talkme.life/media/thumbs/users/avatar/AEhBe0H-4i8.jpg.100x100_q85.jpg",
          "number_class": "A370",
          "avatar_url_original": "https://talkme.life/media/users/avatar/AEhBe0H-4i8.jpg"
        },
        "category_name": "Развлечение",
        "category_ico": "https://talkme.life/media/main/icon/Star_15_vFwIGNO.png",
        "places_left": 9998,
        "is_owner": false,
        "is_subscribe": false,
        "name": "Секреты Шоу бизнеса",
        "description": "В студии Talk me ведущие:\nБодюл Юлия\nАфонии Владислав",
        "slug": "sekretyi_shou_biznesa",
        "vip": false,
        "lesson_time": "01:00:00",
        "lesson_time_calculated": "00:12:56.500357",
        "cost": 0,
        "status": "опубликовано",
        "number_of_participants": 10000,
        "is_finish": false,
        "is_started": true,
        "stream_id": "",
        "unautherization_number": 2,
        "unautherization_subscribers": 2,
        "list_of_participants": [],
        "gcore_stream_id": "324035",
        "gcore_push_url": "rtmp://vp-push-dt1.gvideo.co/in/324035?3919e8dee8937a0ad761ae9afb957da5",
        "gcore_hls_url": "https://talkme.gcdn.co/videos/28002_ZfI7tFP7cW5WXHFM/master.m3u8",
        "gcore_dash_url": null,
        "VIP_banner": false,
        "similar_lesson": []
    },
    {
        "id": 15866,
        "date": 165470586000.0,
        "sub_category": {
            "name": "Красота",
            "slug": "krasota",
            "id": 259,
            "parent": 181
        },
        "tile_image": "https://talkme.life/media/thumbs/main/tiles/photo_AbR110m.jpg.650x470_q85.jpg",
        "tile_image_440": "https://talkme.life/media/thumbs/main/tiles/photo_AbR110m.jpg.400x150_q85.jpg",
        "owner": {
            "first_name": "Вера",
            "last_name": "Башилова",
            "id": 1690,
            "username": "1690",
            "avatar_url": "https://talkme.life/media/thumbs/users/avatar/photo_cjxAO1M.jpg.305x305_q85.jpg",
            "avatar_url_100": "https://talkme.life/media/thumbs/users/avatar/photo_cjxAO1M.jpg.100x100_q85.jpg",
            "number_class": "A227",
            "avatar_url_original": "https://talkme.life/media/users/avatar/photo_cjxAO1M.jpg"
        },
        "category_name": "Курсы",
        "category_ico": "https://talkme.life/media/main/icon/courses.png",
        "places_left": 9999,
        "is_owner": false,
        "is_subscribe": false,
        "name": "Продолжаем рисовать на типсах",
        "description": "",
        "slug": "prodolzhaem_risovat_na_tipsah",
        "vip": false,
        "lesson_time": "00:30:00",
        "lesson_time_calculated": "00:00:00",
        "cost": 0,
        "status": "опубликовано",
        "number_of_participants": 10000,
        "is_finish": false,
        "is_started": true,
        "stream_id": "",
        "unautherization_number": 0,
        "unautherization_subscribers": 0,
        "list_of_participants": [],
        "gcore_stream_id": "324062",
        "gcore_push_url": "rtmp://vp-push-dt1.gvideo.co/in/324062?a754345e82997c9c7405ef088dc62173",
        "gcore_hls_url": "https://talkme.gcdn.co/videos/28002_ZfI7tFP7cW5WXHFM/master.m3u8",
        "gcore_dash_url": null,
        "VIP_banner": false,
        "similar_lesson": []
    },
    {
        "id": 15811,
        "date": 165458520000.0,
        "sub_category": {
            "name": "Для дома",
            "slug": "dlya_doma",
            "id": 601,
            "parent": 600
        },
        "tile_image": "https://talkme.life/media/thumbs/main/tiles/photo_m9EN5fR.jpg.650x470_q85.jpg",
        "tile_image_440": "https://talkme.life/media/thumbs/main/tiles/photo_m9EN5fR.jpg.400x150_q85.jpg",
        "owner": {
            "first_name": "Виктория",
            "last_name": "Колесникова",
            "id": 2590,
            "username": "2590",
            "avatar_url": "https://talkme.life/media/thumbs/users/avatar/photo_OgpZh8S.jpg.305x305_q85.jpg",
            "avatar_url_100": "https://talkme.life/media/thumbs/users/avatar/photo_OgpZh8S.jpg.100x100_q85.jpg",
            "number_class": "A366",
            "avatar_url_original": "https://talkme.life/media/users/avatar/photo_OgpZh8S.jpg"
        },
        "category_name": "Своими руками",
        "category_ico": "https://talkme.life/media/main/icon/Vector_3.png",
        "places_left": 10000,
        "is_owner": false,
        "is_subscribe": false,
        "name": "Вяжу из проволоки",
        "description": "Показываю свои украшения из проволоки и вяжу",
        "slug": "vyazhu_iz_provoloki",
        "vip": false,
        "lesson_time": "01:00:00",
        "lesson_time_calculated": "00:06:27.633006",
        "cost": 0,
        "status": "опубликовано",
        "number_of_participants": 10000,
        "is_finish": false,
        "is_started": true,
        "stream_id": "",
        "unautherization_number": 1,
        "unautherization_subscribers": 0,
        "list_of_participants": [],
        "gcore_stream_id": "322760",
        "gcore_push_url": "rtmp://vp-push-dt1.gvideo.co/in/322760?79251eec1ee092094ca7d8d4f6edebba",
        "gcore_hls_url": "https://talkme.gcdn.co/videos/28002_GkQGy4gM16VfjbI/master.m3u8",
        "gcore_dash_url": null,
        "VIP_banner": false,
        "similar_lesson": []
}]

